<?xml version="1.0" encoding="UTF-8"?>
<testng-results skipped="0" failed="0" ignored="0" total="8" passed="8">
  <reporter-output>
  </reporter-output>
  <suite name="Suite" duration-ms="206107" started-at="2021-10-22T12:09:58 IST" finished-at="2021-10-22T12:13:24 IST">
    <groups>
    </groups>
    <test name="Test" duration-ms="206107" started-at="2021-10-22T12:09:58 IST" finished-at="2021-10-22T12:13:24 IST">
      <class name="com.mindtree.runner.AtlanticBooksWebsite">
        <test-method status="PASS" signature="intoTheUrl()[pri:0, instance:com.mindtree.runner.AtlanticBooksWebsite@7ee8290b]" name="intoTheUrl" is-config="true" duration-ms="2148" started-at="2021-10-22T12:09:58 IST" finished-at="2021-10-22T12:10:00 IST">
          <reporter-output>
          </reporter-output>
        </test-method> <!-- intoTheUrl -->
        <test-method status="PASS" signature="SelectingBooks()[pri:0, instance:com.mindtree.runner.AtlanticBooksWebsite@7ee8290b]" name="SelectingBooks" duration-ms="31822" started-at="2021-10-22T12:10:00 IST" finished-at="2021-10-22T12:10:32 IST">
          <reporter-output>
          </reporter-output>
        </test-method> <!-- SelectingBooks -->
        <test-method status="PASS" signature="terminate()[pri:0, instance:com.mindtree.runner.AtlanticBooksWebsite@7ee8290b]" name="terminate" is-config="true" duration-ms="661" started-at="2021-10-22T12:10:32 IST" finished-at="2021-10-22T12:10:32 IST">
          <reporter-output>
          </reporter-output>
        </test-method> <!-- terminate -->
        <test-method status="PASS" signature="intoTheUrl()[pri:0, instance:com.mindtree.runner.AtlanticBooksWebsite@7ee8290b]" name="intoTheUrl" is-config="true" duration-ms="1442" started-at="2021-10-22T12:10:33 IST" finished-at="2021-10-22T12:10:34 IST">
          <reporter-output>
          </reporter-output>
        </test-method> <!-- intoTheUrl -->
        <test-method status="PASS" signature="SelectingBooks(java.lang.String)[pri:0, instance:com.mindtree.runner.AtlanticBooksWebsite@7ee8290b]" name="SelectingBooks" duration-ms="20968" started-at="2021-10-22T12:10:34 IST" data-provider="excel" finished-at="2021-10-22T12:10:55 IST">
          <params>
            <param index="0">
              <value>
                <![CDATA[gmat]]>
              </value>
            </param>
          </params>
          <reporter-output>
          </reporter-output>
        </test-method> <!-- SelectingBooks -->
        <test-method status="PASS" signature="terminate()[pri:0, instance:com.mindtree.runner.AtlanticBooksWebsite@7ee8290b]" name="terminate" is-config="true" duration-ms="4160" started-at="2021-10-22T12:10:55 IST" finished-at="2021-10-22T12:11:00 IST">
          <reporter-output>
          </reporter-output>
        </test-method> <!-- terminate -->
        <test-method status="PASS" signature="intoTheUrl()[pri:0, instance:com.mindtree.runner.AtlanticBooksWebsite@7ee8290b]" name="intoTheUrl" is-config="true" duration-ms="1902" started-at="2021-10-22T12:11:00 IST" finished-at="2021-10-22T12:11:01 IST">
          <reporter-output>
          </reporter-output>
        </test-method> <!-- intoTheUrl -->
        <test-method status="PASS" signature="SelectingBooks(java.lang.String)[pri:0, instance:com.mindtree.runner.AtlanticBooksWebsite@7ee8290b]" name="SelectingBooks" duration-ms="31837" started-at="2021-10-22T12:11:01 IST" data-provider="excel" finished-at="2021-10-22T12:11:33 IST">
          <params>
            <param index="0">
              <value>
                <![CDATA[Story Books for kids]]>
              </value>
            </param>
          </params>
          <reporter-output>
          </reporter-output>
        </test-method> <!-- SelectingBooks -->
        <test-method status="PASS" signature="terminate()[pri:0, instance:com.mindtree.runner.AtlanticBooksWebsite@7ee8290b]" name="terminate" is-config="true" duration-ms="4176" started-at="2021-10-22T12:11:33 IST" finished-at="2021-10-22T12:11:38 IST">
          <reporter-output>
          </reporter-output>
        </test-method> <!-- terminate -->
        <test-method status="PASS" signature="intoTheUrl()[pri:0, instance:com.mindtree.runner.AtlanticBooksWebsite@7ee8290b]" name="intoTheUrl" is-config="true" duration-ms="1476" started-at="2021-10-22T12:11:38 IST" finished-at="2021-10-22T12:11:39 IST">
          <reporter-output>
          </reporter-output>
        </test-method> <!-- intoTheUrl -->
        <test-method status="PASS" signature="SelectingBooks(java.lang.String)[pri:0, instance:com.mindtree.runner.AtlanticBooksWebsite@7ee8290b]" name="SelectingBooks" duration-ms="30160" started-at="2021-10-22T12:11:39 IST" data-provider="excel" finished-at="2021-10-22T12:12:09 IST">
          <params>
            <param index="0">
              <value>
                <![CDATA[RS agarwal]]>
              </value>
            </param>
          </params>
          <reporter-output>
          </reporter-output>
        </test-method> <!-- SelectingBooks -->
        <test-method status="PASS" signature="terminate()[pri:0, instance:com.mindtree.runner.AtlanticBooksWebsite@7ee8290b]" name="terminate" is-config="true" duration-ms="428" started-at="2021-10-22T12:12:09 IST" finished-at="2021-10-22T12:12:10 IST">
          <reporter-output>
          </reporter-output>
        </test-method> <!-- terminate -->
        <test-method status="PASS" signature="intoTheUrl()[pri:0, instance:com.mindtree.runner.AtlanticBooksWebsite@7ee8290b]" name="intoTheUrl" is-config="true" duration-ms="1596" started-at="2021-10-22T12:12:10 IST" finished-at="2021-10-22T12:12:11 IST">
          <reporter-output>
          </reporter-output>
        </test-method> <!-- intoTheUrl -->
        <test-method status="PASS" signature="cart()[pri:0, instance:com.mindtree.runner.AtlanticBooksWebsite@7ee8290b]" name="cart" duration-ms="17171" started-at="2021-10-22T12:12:11 IST" finished-at="2021-10-22T12:12:28 IST">
          <reporter-output>
          </reporter-output>
        </test-method> <!-- cart -->
        <test-method status="PASS" signature="terminate()[pri:0, instance:com.mindtree.runner.AtlanticBooksWebsite@7ee8290b]" name="terminate" is-config="true" duration-ms="201" started-at="2021-10-22T12:12:28 IST" finished-at="2021-10-22T12:12:29 IST">
          <reporter-output>
          </reporter-output>
        </test-method> <!-- terminate -->
        <test-method status="PASS" signature="intoTheUrl()[pri:0, instance:com.mindtree.runner.AtlanticBooksWebsite@7ee8290b]" name="intoTheUrl" is-config="true" duration-ms="1363" started-at="2021-10-22T12:12:29 IST" finished-at="2021-10-22T12:12:30 IST">
          <reporter-output>
          </reporter-output>
        </test-method> <!-- intoTheUrl -->
        <test-method status="PASS" signature="countLinks()[pri:0, instance:com.mindtree.runner.AtlanticBooksWebsite@7ee8290b]" name="countLinks" duration-ms="9560" started-at="2021-10-22T12:12:30 IST" finished-at="2021-10-22T12:12:39 IST">
          <reporter-output>
          </reporter-output>
        </test-method> <!-- countLinks -->
        <test-method status="PASS" signature="terminate()[pri:0, instance:com.mindtree.runner.AtlanticBooksWebsite@7ee8290b]" name="terminate" is-config="true" duration-ms="69" started-at="2021-10-22T12:12:39 IST" finished-at="2021-10-22T12:12:40 IST">
          <reporter-output>
          </reporter-output>
        </test-method> <!-- terminate -->
        <test-method status="PASS" signature="intoTheUrl()[pri:0, instance:com.mindtree.runner.AtlanticBooksWebsite@7ee8290b]" name="intoTheUrl" is-config="true" duration-ms="2063" started-at="2021-10-22T12:12:40 IST" finished-at="2021-10-22T12:12:42 IST">
          <reporter-output>
          </reporter-output>
        </test-method> <!-- intoTheUrl -->
        <test-method status="PASS" signature="login(java.lang.String,java.lang.String)[pri:0, instance:com.mindtree.runner.AtlanticBooksWebsite@7ee8290b]" name="login" duration-ms="20273" started-at="2021-10-22T12:12:42 IST" data-provider="data" finished-at="2021-10-22T12:13:02 IST">
          <params>
            <param index="0">
              <value>
                <![CDATA[madhu@gmail.com]]>
              </value>
            </param>
            <param index="1">
              <value>
                <![CDATA[123456]]>
              </value>
            </param>
          </params>
          <reporter-output>
          </reporter-output>
        </test-method> <!-- login -->
        <test-method status="PASS" signature="terminate()[pri:0, instance:com.mindtree.runner.AtlanticBooksWebsite@7ee8290b]" name="terminate" is-config="true" duration-ms="495" started-at="2021-10-22T12:13:02 IST" finished-at="2021-10-22T12:13:02 IST">
          <reporter-output>
          </reporter-output>
        </test-method> <!-- terminate -->
        <test-method status="PASS" signature="intoTheUrl()[pri:0, instance:com.mindtree.runner.AtlanticBooksWebsite@7ee8290b]" name="intoTheUrl" is-config="true" duration-ms="1665" started-at="2021-10-22T12:13:02 IST" finished-at="2021-10-22T12:13:04 IST">
          <reporter-output>
          </reporter-output>
        </test-method> <!-- intoTheUrl -->
        <test-method status="PASS" signature="login(java.lang.String,java.lang.String)[pri:0, instance:com.mindtree.runner.AtlanticBooksWebsite@7ee8290b]" name="login" duration-ms="15171" started-at="2021-10-22T12:13:04 IST" data-provider="data" finished-at="2021-10-22T12:13:19 IST">
          <params>
            <param index="0">
              <value>
                <![CDATA[kl@gmail.com]]>
              </value>
            </param>
            <param index="1">
              <value>
                <![CDATA[123]]>
              </value>
            </param>
          </params>
          <reporter-output>
          </reporter-output>
        </test-method> <!-- login -->
        <test-method status="PASS" signature="terminate()[pri:0, instance:com.mindtree.runner.AtlanticBooksWebsite@7ee8290b]" name="terminate" is-config="true" duration-ms="4621" started-at="2021-10-22T12:13:19 IST" finished-at="2021-10-22T12:13:24 IST">
          <reporter-output>
          </reporter-output>
        </test-method> <!-- terminate -->
      </class> <!-- com.mindtree.runner.AtlanticBooksWebsite -->
    </test> <!-- Test -->
  </suite> <!-- Suite -->
</testng-results>
